{
  "project_info": {
    "project_number": "960867053565",
    "project_id": "didiercamargobranchbit",
    "storage_bucket": "didiercamargobranchbit.appspot.com"
  },
  "client": [
    {
      "client_info": {
        "mobilesdk_app_id": "1:960867053565:android:7acd522bc7a9149320f394",
        "android_client_info": {
          "package_name": "com.example.didiercamargobranchbit"
        }
      },
      "oauth_client": [
        {
          "client_id": "960867053565-7fa0imb81b1vk8chbi81uo1a4r0br0lt.apps.googleusercontent.com",
          "client_type": 3
        }
      ],
      "api_key": [
        {
          "current_key": "AIzaSyDSnbJfXas5TzgowilAVn-xExAA8SoNmVE"
        }
      ],
      "services": {
        "appinvite_service": {
          "other_platform_oauth_client": [
            {
              "client_id": "960867053565-7fa0imb81b1vk8chbi81uo1a4r0br0lt.apps.googleusercontent.com",
              "client_type": 3
            }
          ]
        }
      }
    }
  ],
  "configuration_version": "1"
}